<?xml version="1.0" encoding="UTF-8" standalone="no"?>
<!-- Created with Inkscape (http://www.inkscape.org/) -->

<svg
   xmlns:dc="http://purl.org/dc/elements/1.1/"
   xmlns:cc="http://creativecommons.org/ns#"
   xmlns:rdf="http://www.w3.org/1999/02/22-rdf-syntax-ns#"
   xmlns:svg="http://www.w3.org/2000/svg"
   xmlns="http://www.w3.org/2000/svg"
   xmlns:sodipodi="http://sodipodi.sourceforge.net/DTD/sodipodi-0.dtd"
   xmlns:inkscape="http://www.inkscape.org/namespaces/inkscape"
   width="24"
   height="24"
   viewBox="0 0 24 24"
   version="1.1"
   id="svg8"
   inkscape:version="0.92.4 5da689c313, 2019-01-14"
   sodipodi:docname="my-app-admin.svg">
  <defs
     id="defs2" />
  <sodipodi:namedview
     id="base"
     pagecolor="#ffffff"
     bordercolor="#666666"
     borderopacity="1.0"
     inkscape:pageopacity="0.0"
     inkscape:pageshadow="2"
     inkscape:zoom="5.6568543"
     inkscape:cx="9.542362"
     inkscape:cy="12.085418"
     inkscape:document-units="px"
     inkscape:current-layer="layer1"
     showgrid="false"
     units="px"
     inkscape:window-width="1920"
     inkscape:window-height="1047"
     inkscape:window-x="0"
     inkscape:window-y="33"
     inkscape:window-maximized="1"
     showguides="false">
    <inkscape:grid
       type="xygrid"
       id="grid815" />
  </sodipodi:namedview>
  <metadata
     id="metadata5">
    <rdf:RDF>
      <cc:Work
         rdf:about="">
        <dc:format>image/svg+xml</dc:format>
        <dc:type
           rdf:resource="http://purl.org/dc/dcmitype/StillImage" />
        <dc:title />
      </cc:Work>
    </rdf:RDF>
  </metadata>
  <g
     inkscape:label="Layer 1"
     inkscape:groupmode="layer"
     id="layer1"
     transform="translate(0,-290.64999)">
    <circle
       style="opacity:1;fill:#ff0000;fill-opacity:1;stroke:none;stroke-width:0.5;stroke-linecap:round;stroke-linejoin:round;stroke-miterlimit:4;stroke-dasharray:none;stroke-dashoffset:0;stroke-opacity:1;paint-order:stroke markers fill"
       id="path817"
       cx="12"
       cy="302.64999"
       r="12" />
    <path
       id="path1345"
       style="opacity:1;fill:none;fill-opacity:0.50193092;stroke:#ffffff;stroke-width:1;stroke-linecap:round;stroke-linejoin:round;stroke-miterlimit:4;stroke-dasharray:none;stroke-dashoffset:0;stroke-opacity:1;paint-order:stroke markers fill"
       d="m 17.5,298.64999 v 3.5 H 14 m -1.5,-1.5 v -3.5 0 H 16 m -2,5 a 1.5,1.5 0 0 1 -1.5,-1.5 m 3.5,-3.5 a 1.5,1.5 0 0 1 1.5,1.5 m -5.5,5.5 a 1.5,1.5 0 0 1 -1.5,-1.5 m 0,0 a 1.5,1.5 0 0 1 0.498207,-1.11642 m 2.119006,2.11734 A 1.5,1.5 0 0 1 12,304.14999 m -3.9194863,-1.4999 -0.3500443,-0.14498 C 6.9627382,302.1871 6.6006295,301.31304 6.9186751,300.54526 v 0 c 0.3179988,-0.76774 1.1920605,-1.12984 1.9598341,-0.81178 l 0.3500643,0.14497 m -1.146e-4,1.2e-4 -0.1449801,-0.35005 c -0.3180249,-0.76775 0.043995,-1.64184 0.811796,-1.95985 v 0 c 0.2023742,-0.0838 0.4121412,-0.12041 0.6171662,-0.11475 m 6.683657,6.68364 c 0.0057,0.20503 -0.03092,0.41481 -0.114753,0.6172 v 0 c -0.318018,0.76774 -1.192064,1.12985 -1.959843,0.81179 l -0.350053,-0.145 m 1.33e-4,-9e-5 0.144991,0.35005 c 0.318014,0.76774 -0.04399,1.64183 -0.811799,1.95984 v 0 c -0.767725,0.31801 -1.641835,-0.044 -1.959831,-0.8118 l -0.14501,-0.35005 m 1.58e-4,0 -0.145001,0.35006 c -0.318004,0.76773 -1.192057,1.12983 -1.959848,0.81178 v 0 c -0.767727,-0.318 -1.1298352,-1.19206 -0.8117811,-1.95984 l 0.1449868,-0.35006 m 1.105e-4,1.2e-4 -0.3500599,0.145 c -0.7677335,0.31801 -1.6418244,-0.044 -1.9598414,-0.8118 v 0 c -0.3180028,-0.76773 0.044001,-1.64183 0.8117989,-1.95983 l 0.3500519,-0.14501" />
  </g>
</svg>
